Division,WeightClassKg,Place,Name,Team,BodyweightKg,Best3SquatKg,Best3BenchKg,Best3DeadliftKg,TotalKg,Equipment,Event,Sex,BirthDate
Boys,51.71,1,Jaydan Flemmons,Jasper,51.62,170.1,74.84,183.7,428.64,Single-ply,SBD,M,
Boys,51.71,2,Nicholas Gutierrez,Boling,51.53,163.29,88.45,167.83,419.57,Single-ply,SBD,M,
Boys,51.71,3,Chase Stansbury,Vidor,51.71,147.42,92.99,151.95,392.36,Single-ply,SBD,M,
Boys,51.71,4,Alex Le,Palacios,50.62,142.88,97.52,138.35,378.75,Single-ply,SBD,M,
Boys,51.71,5,Adan Alvarez,Boling,50.62,151.95,77.11,149.69,378.75,Single-ply,SBD,M,
Boys,51.71,6,Bryan Maldonado,Wallis Brazos,51.62,133.81,72.57,129.27,335.66,Single-ply,SBD,M,
Boys,51.71,7,Carlos Gamez,Hitchcock,47.99,108.86,61.23,111.13,281.23,Single-ply,SBD,M,
Boys,51.71,8,Cade Janecek,East Bernard,51.17,102.06,,,102.06,Single-ply,S,M,
Boys,51.71,DQ,Noah Whitley,Edna,51.26,131.54,,,,Single-ply,SBD,M,
Boys,51.71,DQ,Dustin Bland,Orange Little Cypress-Mauriceville,51.44,108.86,,,,Single-ply,SBD,M,
Boys,51.71,NS,Hayden Wilkinson,Buna,,,,,,Single-ply,SBD,M,
Boys,51.71,DQ,Hunter Kopecky,East Bernard,50.98,102.06,68.04,,,Single-ply,SBD,M,
Boys,55.79,1,Chase Chapa,Port Lavaca Calhoun,54.79,192.78,117.93,217.72,528.44,Single-ply,SBD,M,
Boys,55.79,2,Lukthaddeus Collins,Jasper,55.07,183.7,102.06,195.04,480.81,Single-ply,SBD,M,
Boys,55.79,3,Rudy Morales,Shepherd,55.52,170.1,90.72,176.9,437.72,Single-ply,SBD,M,
Boys,55.79,4,Westin Sepulvado,Vidor,55.52,165.56,97.52,167.83,430.91,Single-ply,SBD,M,
Boys,55.79,5,Craig Moffett,Silsbee,55.79,158.76,83.91,158.76,401.43,Single-ply,SBD,M,
Boys,55.79,6,Rudy Becerra,Boling,53.89,149.69,90.72,154.22,394.63,Single-ply,SBD,M,
Boys,55.79,7,Juan Perez #3,Sealy,55.34,140.61,79.38,156.49,376.48,Single-ply,SBD,M,
Boys,55.79,8,Jordan Garcia #7,El Maton Tidehaven,54.07,136.08,72.57,151.95,360.61,Single-ply,SBD,M,
Boys,55.79,9,Landen Talley,Silsbee,55.7,136.08,83.91,136.08,356.07,Single-ply,SBD,M,
Boys,55.79,10,Zykeelan Hadnot,Jasper,54.52,124.74,79.38,136.08,340.19,Single-ply,SBD,M,
Boys,55.79,11,Josh Martinez,Wallis Brazos,55.7,133.81,81.65,124.74,340.19,Single-ply,SBD,M,
Boys,55.79,12,Micheal Sessum,Livingston,54.79,106.59,86.18,131.54,324.32,Single-ply,SBD,M,
Boys,59.87,1,Lane Baker,Shepherd,59.24,197.31,111.13,199.58,508.02,Single-ply,SBD,M,
Boys,59.87,2,Zachary Kreg,Splendora,59.51,174.63,124.74,161.03,460.4,Single-ply,SBD,M,
Boys,59.87,3,Damien Garza,Van Vleck,58.51,176.9,86.18,176.9,439.98,Single-ply,SBD,M,
Boys,59.87,4,Dylan Thaxton,Sealy,59.33,167.83,90.72,174.63,433.18,Single-ply,SBD,M,
Boys,59.87,5,Mason Harvill,Sour Lake Hardin-Jefferson,59.06,165.56,99.79,163.29,428.64,Single-ply,SBD,M,
Boys,59.87,6,Eh Klo Say,Port Lavaca Calhoun,59.15,161.03,97.52,151.95,410.5,Single-ply,SBD,M,
Boys,59.87,7,Weslee Novosad,Sealy,59.6,158.76,79.38,172.37,410.5,Single-ply,SBD,M,
Boys,59.87,8,Geovanni Villeda,Edna,58.15,149.69,90.72,158.76,399.16,Single-ply,SBD,M,
Boys,59.87,9,Alerique Medrano,Boling,59.33,145.15,90.72,161.03,396.89,Single-ply,SBD,M,
Boys,59.87,10,Camdyn Christopher,Bridge City,59.69,136.08,65.77,165.56,367.41,Single-ply,SBD,M,
Boys,59.87,DQ,Johnny Martinez,East Bernard,57.7,,,,,Single-ply,SBD,M,
Boys,59.87,DQ,Ricky Regalado,Warren,58.97,129.27,,,,Single-ply,SBD,M,
Boys,67.13,1,Jakob Cortez,Port Lavaca Calhoun,65.14,233.6,115.67,240.4,589.67,Single-ply,SBD,M,
Boys,67.13,2,Miguel Sanchez,Palacios,64.77,224.53,133.81,215.46,573.79,Single-ply,SBD,M,
Boys,67.13,3,Xavier Cerna,Gonzales,67.13,219.99,133.81,208.65,562.45,Single-ply,SBD,M,
Boys,67.13,4,Justin Legg,Livingston,65.95,208.65,136.08,210.92,555.65,Single-ply,SBD,M,
Boys,67.13,5,Diego Hernandez,Gonzales,66.95,206.38,102.06,199.58,508.02,Single-ply,SBD,M,
Boys,67.13,6,Stephen Lopez,Lumberton,66.59,183.7,111.13,192.78,487.61,Single-ply,SBD,M,
Boys,67.13,7,Jastin Arbing,Boling,66.04,181.44,104.33,197.31,483.08,Single-ply,SBD,M,
Boys,67.13,8,Bryce Duke,Palacios,66.59,183.7,97.52,192.78,474,Single-ply,SBD,M,
Boys,67.13,9,Justan Standley,Kountze,66.5,176.9,97.52,190.51,464.93,Single-ply,SBD,M,
Boys,67.13,10,Aj Valdez #2,Cleveland Tarkington,64.86,174.63,97.52,183.7,455.86,Single-ply,SBD,M,
Boys,67.13,11,Alex Jaime,Hamshire-Fannett,66.22,172.37,104.33,179.17,455.86,Single-ply,SBD,M,
Boys,67.13,12,Tyler Toutcheque,West Columbia,63.05,142.88,102.06,183.7,428.64,Single-ply,SBD,M,
Boys,67.13,NS,Kevin Luong,Orangefield,,,,,,Single-ply,SBD,M,
Boys,74.84,1,Moises Amaro,Palacios,72.48,288.03,185.97,242.67,716.68,Single-ply,SBD,M,
Boys,74.84,2,Joey Townsend,Wallis Brazos,71.49,231.33,117.93,226.8,576.06,Single-ply,SBD,M,
Boys,74.84,3,Cesar Matamoros,Gonzales,73.21,235.87,127.01,213.19,576.06,Single-ply,SBD,M,
Boys,74.84,4,Javen Mendiola,Cuero,71.58,204.12,131.54,233.6,569.26,Single-ply,SBD,M,
Boys,74.84,5,Devin Peterson,Vidor,74.12,210.92,142.88,210.92,564.72,Single-ply,SBD,M,
Boys,74.84,6,Corey Riley,Sealy,72.39,224.53,122.47,204.12,551.11,Single-ply,SBD,M,
Boys,74.84,7,Zeke Campos,Geronimo Navarro,72.85,222.26,122.47,206.38,551.11,Single-ply,SBD,M,
Boys,74.84,8,Tyler Milstead,Buna,73.57,219.99,104.33,210.92,535.24,Single-ply,SBD,M,
Boys,74.84,9,Martin Moreno,Nixon Smiley,68.49,206.38,106.59,215.46,528.44,Single-ply,SBD,M,
Boys,74.84,10,Niklas Schatz,East Bernard,71.76,224.53,102.06,188.24,514.83,Single-ply,SBD,M,
Boys,74.84,DQ,Eddy Brown,Coldspring-Oakhurst,73.12,,,,,Single-ply,SBD,M,
Boys,74.84,DQ,Xain Dusek,El Maton Tidehaven,73.12,,,,,Single-ply,SBD,M,
Boys,82.1,1,Grant Metts,Orangefield,80.56,229.06,140.61,235.87,605.55,Single-ply,SBD,M,
Boys,82.1,2,Pristine Hysten,Sweeny,81.1,231.33,147.42,226.8,605.55,Single-ply,SBD,M,
Boys,82.1,3,Cody Baker,Cuero,80.1,231.33,142.88,226.8,601.01,Single-ply,SBD,M,
Boys,82.1,4,Stephen Morales,Hitchcock,81.1,224.53,129.27,222.26,576.06,Single-ply,SBD,M,
Boys,82.1,5,Blake Jedlicka,East Bernard,80.01,229.06,131.54,213.19,573.79,Single-ply,SBD,M,
Boys,82.1,6,Jesse Arrington,Boling,80.83,226.8,124.74,210.92,562.45,Single-ply,SBD,M,
Boys,82.1,7,Jose Raynaga,Port Lavaca Calhoun,81.74,197.31,136.08,222.26,555.65,Single-ply,SBD,M,
Boys,82.1,8,Andrew Hernandez,Splendora,79.92,201.85,142.88,204.12,548.85,Single-ply,SBD,M,
Boys,82.1,9,Fidel Chavez,Palacios,80.92,183.7,129.27,213.19,526.17,Single-ply,SBD,M,
Boys,82.1,10,Mario Martin,Bridge City,78.47,181.44,115.67,215.46,512.56,Single-ply,SBD,M,
Boys,82.1,NS,Bradley Sanders,Cleveland Tarkington,,,,,,Single-ply,SBD,M,
Boys,82.1,DQ,Clint Williams,West Orange-Stark,81.74,,,,,Single-ply,SBD,M,
Boys,89.81,1,Alex Marek,Bellville,88.72,265.35,147.42,256.28,669.05,Single-ply,SBD,M,
Boys,89.81,2,J Galvan,East Bernard,82.46,238.14,163.29,229.06,630.49,Single-ply,SBD,M,
Boys,89.81,3,Tanner Coleman,Victoria St. Joseph,87.91,226.8,145.15,219.99,591.94,Single-ply,SBD,M,
Boys,89.81,4,Xavier Smith,Port Lavaca Calhoun,84.01,210.92,136.08,233.6,580.6,Single-ply,SBD,M,
Boys,89.81,5,Tanner Adams,Splendora,86.27,219.99,147.42,208.65,576.06,Single-ply,SBD,M,
Boys,89.81,6,Faustino Galvan,Lumberton,88,206.38,145.15,206.38,557.92,Single-ply,SBD,M,
Boys,89.81,7,Nikkeithen Hafford,Jasper,89.27,231.33,117.93,204.12,553.38,Single-ply,SBD,M,
Boys,89.81,8,Kasey Zientek,Wallis Brazos,88.18,215.46,115.67,192.78,523.9,Single-ply,SBD,M,
Boys,89.81,9,Pavan Patel,Port Lavaca Calhoun,84.73,183.7,106.59,217.72,508.02,Single-ply,SBD,M,
Boys,89.81,NS,Logan Hill,Anahuac,,,,,,Single-ply,SBD,M,
Boys,89.81,DQ,Xavier Perez #1,Palacios,87.72,224.53,129.27,,,Single-ply,SBD,M,
Boys,89.81,DQ,Zane Obregon,Splendora,84.1,233.6,,,,Single-ply,SBD,M,
Boys,99.79,1,James White,Danbury,97.25,235.87,176.9,235.87,648.64,Single-ply,SBD,M,
Boys,99.79,2,Hunter Saavedra,El Maton Tidehaven,97.16,244.94,156.49,229.06,630.49,Single-ply,SBD,M,
Boys,99.79,3,Zack Chance,Shepherd,98.43,249.48,142.88,231.33,623.69,Single-ply,SBD,M,
Boys,99.79,4,Caleb Monroe,Coldspring-Oakhurst,97.43,240.4,147.42,231.33,619.15,Single-ply,SBD,M,
Boys,99.79,5,Ben Leon,Sour Lake Hardin-Jefferson,96.34,229.06,156.49,226.8,612.35,Single-ply,SBD,M,
Boys,99.79,6,Mark Davis,Buna,90.54,235.87,167.83,204.12,607.81,Single-ply,SBD,M,
Boys,99.79,7,Fernando Cortes,Edna,91.63,249.48,131.54,222.26,603.28,Single-ply,SBD,M,
Boys,99.79,8,Xavier Mindiola,Livingston,94.71,222.26,145.15,204.12,571.53,Single-ply,SBD,M,
Boys,99.79,9,Hayden Pearson,Wallis Brazos,97.16,217.72,142.88,204.12,564.72,Single-ply,SBD,M,
Boys,99.79,NS,Brett Bible,Sweeny,,,,,,Single-ply,SBD,M,
Boys,99.79,NS,Mauricio Pecina,Yoakum,,,,,,Single-ply,SBD,M,
Boys,99.79,DQ,Josh Figueroa,Van Vleck,97.52,256.28,,,,Single-ply,SBD,M,
Boys,99.79,DQ,Logan Brown,Splendora,96.43,219.99,167.83,,,Single-ply,SBD,M,
Boys,109.77,1,Hunter Ashworth,Orangefield,106.14,294.84,151.95,247.21,694,Single-ply,SBD,M,
Boys,109.77,2,Cole Booker,Geronimo Navarro,107.77,283.5,151.95,244.94,680.39,Single-ply,SBD,M,
Boys,109.77,3,Diego Flores,Sweeny,104.78,258.55,176.9,219.99,655.44,Single-ply,SBD,M,
Boys,109.77,4,Brody Whitson,Geronimo Navarro,107.41,240.4,142.88,254.01,637.3,Single-ply,SBD,M,
Boys,109.77,5,Ethan Meads,Orangefield,106.59,249.48,158.76,226.8,635.03,Single-ply,SBD,M,
Boys,109.77,6,Jaydon Harris,Cleveland Tarkington,101.33,249.48,133.81,249.48,632.76,Single-ply,SBD,M,
Boys,109.77,7,Devin Johnson,Edna,106.23,254.01,145.15,215.46,614.62,Single-ply,SBD,M,
Boys,109.77,8,Cole Casper,Newton,103.96,222.26,136.08,238.14,596.47,Single-ply,SBD,M,
Boys,109.77,9,Slade Parnell,Winnie East Chambers,109.23,233.6,136.08,201.85,571.53,Single-ply,SBD,M,
Boys,109.77,10,Jacob Jones,Warren,108.23,217.72,145.15,204.12,566.99,Single-ply,SBD,M,
Boys,109.77,11,Yahir Alvarez,Sealy,101.7,219.99,127.01,217.72,564.72,Single-ply,SBD,M,
Boys,109.77,DQ,Clayton Corne,Lumberton,106.78,233.6,124.74,,,Single-ply,SBD,M,
Boys,124.74,1,Landon Henke,Needville,119.2,340.19,188.24,272.16,800.59,Single-ply,SBD,M,
Boys,124.74,2,Hunter Norwood,Orangefield,114.4,294.84,190.51,256.28,741.62,Single-ply,SBD,M,
Boys,124.74,3,Carter Holtkamp,Geronimo Navarro,119.39,292.57,174.63,242.67,709.87,Single-ply,SBD,M,
Boys,124.74,4,Tristan Bermea,Vanderbilt Industrial,118.48,283.5,190.51,229.06,703.07,Single-ply,SBD,M,
Boys,124.74,5,Jerry Johnson,El Maton Tidehaven,117.75,285.76,151.95,249.48,687.19,Single-ply,SBD,M,
Boys,124.74,6,Ayden Bell,Silsbee,118.93,258.55,161.03,260.82,680.39,Single-ply,SBD,M,
Boys,124.74,7,Christian Almaguer,Gonzales,116.57,288.03,156.49,231.33,675.85,Single-ply,SBD,M,
Boys,124.74,8,Nate Beck,Victoria St. Joseph,122.92,272.16,158.76,238.14,669.05,Single-ply,SBD,M,
Boys,124.74,9,Aldo Salinas,Lumberton,122.74,290.3,142.88,231.33,664.51,Single-ply,SBD,M,
Boys,124.74,10,Shane Holst,Hardin,110.22,240.4,149.69,242.67,632.76,Single-ply,SBD,M,
Boys,124.74,DQ,Kyle Weghorst,Cuero,117.39,,,,,Single-ply,SBD,M,
Boys,124.74,DQ,Tristan Stewart,Winnie East Chambers,112.67,,,,,Single-ply,SBD,M,
Boys,124.74,NS,Jordan Smith #5,Vidor,,,,,,Single-ply,SBD,M,
Boys,139.71,1,Sergio Hernandez,Geronimo Navarro,138.62,340.19,210.92,272.16,823.27,Single-ply,SBD,M,
Boys,139.71,2,Tyler Webb,Vidor,128.64,290.3,197.31,265.35,752.96,Single-ply,SBD,M,
Boys,139.71,3,Jonathan Petoskey,Lumberton,139.71,303.91,197.31,249.48,750.7,Single-ply,SBD,M,
Boys,139.71,4,Paul Thonsgaard,Hardin,127.19,276.69,188.24,265.35,730.28,Single-ply,SBD,M,
Boys,139.71,5,Ryan Gomez,Gonzales,132,297.1,183.7,244.94,725.75,Single-ply,SBD,M,
Boys,139.71,6,Regan Gibson,West Columbia,136.98,283.5,183.7,249.48,716.68,Single-ply,SBD,M,
Boys,139.71,7,Bode Walters,Marion,132.9,292.57,176.9,217.72,687.19,Single-ply,SBD,M,
Boys,139.71,8,Zach Tillman,Silsbee,128.46,260.82,197.31,222.26,680.39,Single-ply,SBD,M,
Boys,139.71,9,Coby Pruett,Gonzales,130.45,294.84,151.95,226.8,673.58,Single-ply,SBD,M,
Boys,139.71,10,Austin Couhig,Cleveland Tarkington,133.08,274.42,156.49,235.87,666.78,Single-ply,SBD,M,
Boys,139.71,11,Avery Flood,Port Lavaca Calhoun,129.46,272.16,158.76,233.6,664.51,Single-ply,SBD,M,
Boys,139.71,12,Seth Sterns,Liberty,134.72,265.35,154.22,226.8,646.37,Single-ply,SBD,M,
Boys,139.71,NS,Collin Rhodes #2,Splendora,,,,,,Single-ply,SBD,M,
Boys,139.71+,1,Blake Boenisch,Needville,164.11,317.51,215.46,281.23,814.2,Single-ply,SBD,M,
Boys,139.71+,2,Shunmarkus Adams,Jasper,153.13,294.84,183.7,260.82,739.36,Single-ply,SBD,M,
Boys,139.71+,3,Bj Moore,Freeport Brazosport,159.94,340.19,170.1,229.06,739.36,Single-ply,SBD,M,
Boys,139.71+,4,Damian Chavez,Port Lavaca Calhoun,144.24,317.51,172.37,235.87,725.75,Single-ply,SBD,M,
Boys,139.71+,5,Hayden Richardson,Coldspring-Oakhurst,142.79,294.84,163.29,249.48,707.6,Single-ply,SBD,M,
Boys,139.71+,6,Brett Jahns,Gonzales,150.41,244.94,201.85,238.14,684.92,Single-ply,SBD,M,
Boys,139.71+,7,Taj Fields,Altair Rice,167.83,265.35,163.29,226.8,655.44,Single-ply,SBD,M,
Boys,139.71+,8,Breck Machala,Huffman Hargrave,140.43,249.48,158.76,242.67,650.91,Single-ply,SBD,M,
Boys,139.71+,NS,J'Kwon Brumley,Kirbyville,,,,,,Single-ply,SBD,M,
Boys,139.71+,NS,Demetrius Hunter,West Orange-Stark,,,,,,Single-ply,SBD,M,
Boys,139.71+,NS,Mikal Bryan,Hitchcock,,,,,,Single-ply,SBD,M,
Boys,139.71+,DQ,Jonas DeLeon,Cuero,156.76,235.87,142.88,,,Single-ply,SBD,M,
