Division,WeightClassKg,Place,Name,Team,BodyweightKg,Best3SquatKg,Best3BenchKg,Best3DeadliftKg,TotalKg,Equipment,Event,Sex,BirthDate
Boys,51.71,1,Zackary Villarreal,Waco Midway,51.07,86.18,47.63,106.59,240.4,Single-ply,SBD,M,
Boys,55.79,1,Tyler Morrow,Copperas Cove,52.07,142.88,90.72,183.7,417.3,Single-ply,SBD,M,
Boys,67.13,1,Jorden Smith,Waco Midway,63.96,149.69,74.84,145.15,369.68,Single-ply,SBD,M,
Boys,67.13,2,Ian Wilson,Copperas Cove,63.96,129.27,81.65,131.54,342.46,Single-ply,SBD,M,
Boys,74.84,1,Chandler Gastello,Copperas Cove,74.66,181.44,113.4,197.31,492.15,Single-ply,SBD,M,
Boys,74.84,2,LaShaun James,Copperas Cove,72.48,165.56,113.4,172.37,451.32,Single-ply,SBD,M,
Boys,74.84,3,Davis Duncan,Waco Midway,68.49,102.06,54.43,136.08,292.57,Single-ply,SBD,M,
Boys,82.1,1,Tyrese Francis,Copperas Cove,80.56,238.14,129.27,217.72,585.13,Single-ply,SBD,M,
Boys,82.1,2,James Kirk,Waco Midway,80.1,161.03,117.93,181.44,460.4,Single-ply,SBD,M,
Boys,82.1,3,Wade Whitney,Waco Midway,80.74,156.49,111.13,154.22,421.84,Single-ply,SBD,M,
Boys,82.1,4,Cole Copas,Waco Midway,75.21,68.04,27.22,77.11,172.37,Single-ply,SBD,M,
Boys,89.81,1,Christian Mills,Waco Midway,83.46,226.8,117.93,185.97,530.7,Single-ply,SBD,M,
Boys,89.81,DQ,Devon Tataino,Copperas Cove,88.27,156.49,111.13,,,Single-ply,SBD,M,
Boys,99.79,1,Dhamir McDonnaugh,Waco Midway,91.08,174.63,115.67,192.78,483.08,Single-ply,SBD,M,
Boys,99.79,2,Curtis Bolden,Waco Midway,90.54,140.61,72.57,147.42,360.61,Single-ply,SBD,M,
Boys,99.79,DQ,Heath Harris,Waco Midway,93.17,136.08,,151.95,,Single-ply,SBD,M,
Boys,109.77,1,Derek Kunz,Waco Midway,104.51,240.4,131.54,208.65,580.6,Single-ply,SBD,M,
Boys,109.77,2,Taylor Guerro,Waco Midway,108.41,158.76,95.25,190.51,444.52,Single-ply,SBD,M,
Boys,124.74,1,Christopher Garcia,Copperas Cove,117.3,229.06,133.81,222.26,585.13,Single-ply,SBD,M,
Boys,139.71,1,Dan Llanez,Copperas Cove,139.53,242.67,140.61,226.8,610.08,Single-ply,SBD,M,
Boys,139.71,2,Peyton Reed,Copperas Cove,138.53,206.38,147.42,197.31,551.11,Single-ply,SBD,M,
Boys,139.71,3,Kooper McCaig-Forbis,Waco Midway,133.81,226.8,117.93,188.24,532.97,Single-ply,SBD,M,
Boys,139.71,4,Bryson Brown,Waco Midway,125.19,181.44,83.91,158.76,424.11,Single-ply,SBD,M,
Boys,139.71+,1,Thomas Holman,Copperas Cove,155.85,258.55,163.29,233.6,655.44,Single-ply,SBD,M,
Boys,,NS,Tyrese Hale,Copperas Cove,,,,,,Single-ply,SBD,M,
Boys,,NS,Isaiah Billingsley,Waco Midway,,,,,,Single-ply,SBD,M,
Boys,,NS,Corey Merritt,Waco Midway,,,,,,Single-ply,SBD,M,
